{
  "profiles": {
    "Amaterasu.Net6.Web": {
      "commandName": "Project",
      "launchBrowser": true,
      "environmentVariables": {
        "ASPNETCORE_ENVIRONMENT": "Development"
      },
      "applicationUrl": "https://localhost:55511;http://localhost:55512"
    }
  }
}